%YAML 1.1
%TAG !u! tag:unity3d.com,2011:
--- !u!221 &22100000
AnimatorOverrideController:
  m_ObjectHideFlags: 0
  m_PrefabParentObject: {fileID: 0}
  m_PrefabInternal: {fileID: 0}
  m_Name: Earth_ElementController
  m_Controller: {fileID: 9100000, guid: 2088969d86de4824f96f8bb386d3dba8, type: 2}
  m_Clips:
  - m_OriginalClip: {fileID: 7400000, guid: 7a2d03e6af910764bab0fe723aba3b1c, type: 2}
    m_OverrideClip: {fileID: 7400000, guid: b0b4067a408c49c41a200f32f797315d, type: 2}
  - m_OriginalClip: {fileID: 7400000, guid: 4cfb58b90f851c241b398d14c5fb3fb9, type: 2}
    m_OverrideClip: {fileID: 7400000, guid: c52d86b26155d0c4ab093eea9677766a, type: 2}
  - m_OriginalClip: {fileID: 7400000, guid: d7ddaa9052e9302448b73a285dc6a9a0, type: 2}
    m_OverrideClip: {fileID: 7400000, guid: 8536d532766a8a944a44902e92b9d1dc, type: 2}
  - m_OriginalClip: {fileID: 7400000, guid: a2e4fba82e1f78f47adf48fb27089d70, type: 2}
    m_OverrideClip: {fileID: 7400000, guid: 665650962c957164f872358168e461ff, type: 2}
  - m_OriginalClip: {fileID: 7400000, guid: 048b9bfbda1e6634f829f48339290c0e, type: 2}
    m_OverrideClip: {fileID: 7400000, guid: 3f9339dafd9f05241b7abe6225fb6ddd, type: 2}
  - m_OriginalClip: {fileID: 7400000, guid: 7664e555808340a4da8e07a9d53e9b76, type: 2}
    m_OverrideClip: {fileID: 7400000, guid: 1eec502b79ca054428cc2e4e60c25da8, type: 2}
