%YAML 1.1
%TAG !u! tag:unity3d.com,2011:
--- !u!114 &11400000
MonoBehaviour:
  m_ObjectHideFlags: 0
  m_PrefabParentObject: {fileID: 0}
  m_PrefabInternal: {fileID: 0}
  m_GameObject: {fileID: 0}
  m_Enabled: 1
  m_EditorHideFlags: 0
  m_Script: {fileID: 11500000, guid: dc96b57b4058cb047b2840653a493d24, type: 3}
  m_Name: Head_1
  m_EditorClassIdentifier: 
  objectName: "\u9280\u9C57\u982D\u76D4"
  description: "\u7531\u9435\u5320\u6253\u9020\u7684\u6B21\u7D1A\u54C1"
  icon: {fileID: 21300000, guid: db579369d56f3124dbb8a506402c54da, type: 3}
  objectID: 51
  coolDownTime: 0
  shopCost: 5000
  sealValue: 500
  stackLimit: 1
  EquipSlot: 0
  hpModifier: 100
  mpModifier: 50
  armorModifier: 5
  damageModifier: 0
  criticalModifier: 0
