%YAML 1.1
%TAG !u! tag:unity3d.com,2011:
--- !u!114 &11400000
MonoBehaviour:
  m_ObjectHideFlags: 0
  m_PrefabParentObject: {fileID: 0}
  m_PrefabInternal: {fileID: 0}
  m_GameObject: {fileID: 0}
  m_Enabled: 1
  m_EditorHideFlags: 0
  m_Script: {fileID: 11500000, guid: dc96b57b4058cb047b2840653a493d24, type: 3}
  m_Name: Head_2
  m_EditorClassIdentifier: 
  objectName: "\u738B\u8005\u982D\u76D4"
  description: "\u50B3\u8AAA\u7684\u738B\u8005\u624D\u80FD\u88DD\u5099\u6B64\u795E\u5668"
  icon: {fileID: 21300000, guid: 810403e6ec472e043af6fe1e091e2daa, type: 3}
  objectID: 52
  coolDownTime: 0
  shopCost: 99999999
  sealValue: 1
  stackLimit: 1
  EquipSlot: 0
  hpModifier: 500
  mpModifier: 0
  armorModifier: 100
  damageModifier: 0
  criticalModifier: 0
