%YAML 1.1
%TAG !u! tag:unity3d.com,2011:
--- !u!21 &2100000
Material:
  serializedVersion: 6
  m_ObjectHideFlags: 0
  m_PrefabParentObject: {fileID: 0}
  m_PrefabInternal: {fileID: 0}
  m_Name: Distort
  m_Shader: {fileID: 4800000, guid: 3b5eaa5a09e6b204085004ea02b03e38, type: 3}
  m_ShaderKeywords: USE_ALPHA_CLIPING
  m_LightmapFlags: 5
  m_EnableInstancingVariants: 1
  m_DoubleSidedGI: 0
  m_CustomRenderQueue: -1
  stringTagMap: {}
  disabledShaderPasses: []
  m_SavedProperties:
    serializedVersion: 3
    m_TexEnvs:
    - _BumpMap:
        m_Texture: {fileID: 0}
        m_Scale: {x: 1, y: 1}
        m_Offset: {x: 0, y: 0}
    - _BumpTex:
        m_Texture: {fileID: 2800000, guid: f54d5a4f0ea60b349b84ab225d1f2667, type: 3}
        m_Scale: {x: 1, y: 1}
        m_Offset: {x: 0, y: 0}
    - _CutoutTex:
        m_Texture: {fileID: 0}
        m_Scale: {x: 1, y: 1}
        m_Offset: {x: 0, y: 0}
    - _DetailAlbedoMap:
        m_Texture: {fileID: 0}
        m_Scale: {x: 1, y: 1}
        m_Offset: {x: 0, y: 0}
    - _DetailMask:
        m_Texture: {fileID: 0}
        m_Scale: {x: 1, y: 1}
        m_Offset: {x: 0, y: 0}
    - _DetailNormalMap:
        m_Texture: {fileID: 0}
        m_Scale: {x: 1, y: 1}
        m_Offset: {x: 0, y: 0}
    - _EmissionMap:
        m_Texture: {fileID: 0}
        m_Scale: {x: 1, y: 1}
        m_Offset: {x: 0, y: 0}
    - _HeightTex:
        m_Texture: {fileID: 0}
        m_Scale: {x: 1, y: 1}
        m_Offset: {x: 0, y: 0}
    - _MainTex:
        m_Texture: {fileID: 2800000, guid: f54d5a4f0ea60b349b84ab225d1f2667, type: 3}
        m_Scale: {x: 1, y: 1}
        m_Offset: {x: 0, y: 0}
    - _MetallicGlossMap:
        m_Texture: {fileID: 0}
        m_Scale: {x: 1, y: 1}
        m_Offset: {x: 0, y: 0}
    - _NormalTex:
        m_Texture: {fileID: 2800000, guid: c4477239e0e452043a89cab27e89f19e, type: 3}
        m_Scale: {x: 1, y: 1}
        m_Offset: {x: 0, y: 0}
    - _OcclusionMap:
        m_Texture: {fileID: 0}
        m_Scale: {x: 1, y: 1}
        m_Offset: {x: 0, y: 0}
    - _ParallaxMap:
        m_Texture: {fileID: 0}
        m_Scale: {x: 1, y: 1}
        m_Offset: {x: 0, y: 0}
    m_Floats:
    - _AlphaClip: 100
    - _BumpAmt: 50
    - _BumpScale: 1
    - _CullMode: 0
    - _Cutoff: 0.5
    - _Cutout: 1
    - _CutoutThreshold: 0.015
    - _DetailNormalMapScale: 1
    - _DistortScale: 0.3
    - _Distortion: 50
    - _DstBlend: 0
    - _FresnelDistort: 1500
    - _FresnelInvert: 1
    - _FresnelPow: 5
    - _FresnelR0: 0.04
    - _Glossiness: 0.5
    - _Height: 0.1
    - _InvFade: 3
    - _Metallic: 0
    - _Mode: 0
    - _OcclusionStrength: 1
    - _Parallax: 0.02
    - _RefractiveStrength: 0
    - _SrcBlend: 1
    - _TintDistortion: 1
    - _UVSec: 0
    - _UseAlphaCliping: 1
    - _UseBlending: 0
    - _UseCutout: 0
    - _UseFresnel: 0
    - _UseHeight: 0
    - _UseMainTex: 0
    - _UseRefractive: 0
    - _UseSoft: 0
    - _ZWrite: 1
    - _ZWriteMode: 0
    m_Colors:
    - _Color: {r: 1, g: 1, b: 1, a: 1}
    - _CutoutColor: {r: 1, g: 1, b: 1, a: 1}
    - _EmissionColor: {r: 0, g: 0, b: 0, a: 1}
    - _FresnelColor: {r: 0.5, g: 0.5, b: 0.5, a: 1}
    - _HeightUVScrollDistort: {r: 8, g: 12, b: 0, a: 0}
    - _MainColor: {r: 1, g: 1, b: 1, a: 1}
    - _TintColor: {r: 0.5, g: 0.5, b: 0.5, a: 0.5}
