%YAML 1.1
%TAG !u! tag:unity3d.com,2011:
--- !u!319 &31900000
AvatarMask:
  m_ObjectHideFlags: 0
  m_PrefabParentObject: {fileID: 0}
  m_PrefabInternal: {fileID: 0}
  m_Name: HoldWeapon
  m_Mask: 01000000010000000100000001000000010000000100000001000000010000000100000001000000010000000100000001000000
  m_Elements:
  - m_Path: 
    m_Weight: 1
  - m_Path: creature/jaina3/jaina3
    m_Weight: 0
  - m_Path: creature/jaina3/jaina3 1
    m_Weight: 0
  - m_Path: creature/jaina3/jaina3 1/creature/jaina3/jaina3_bone_0
    m_Weight: 0
  - m_Path: creature/jaina3/jaina3 1/creature/jaina3/jaina3_bone_0/creature/jaina3/jaina3_bone_1
    m_Weight: 0
  - m_Path: creature/jaina3/jaina3 1/creature/jaina3/jaina3_bone_0/creature/jaina3/jaina3_bone_1/creature/jaina3/jaina3_bone_2
    m_Weight: 0
  - m_Path: creature/jaina3/jaina3 1/creature/jaina3/jaina3_bone_0/creature/jaina3/jaina3_bone_1/creature/jaina3/jaina3_bone_2/creature/jaina3/jaina3_bone_4
    m_Weight: 0
  - m_Path: creature/jaina3/jaina3 1/creature/jaina3/jaina3_bone_0/creature/jaina3/jaina3_bone_1/creature/jaina3/jaina3_bone_2/creature/jaina3/jaina3_bone_4/creature/jaina3/jaina3_bone_9
    m_Weight: 0
  - m_Path: creature/jaina3/jaina3 1/creature/jaina3/jaina3_bone_0/creature/jaina3/jaina3_bone_1/creature/jaina3/jaina3_bone_2/creature/jaina3/jaina3_bone_4/creature/jaina3/jaina3_bone_9/creature/jaina3/jaina3_bone_15
    m_Weight: 0
  - m_Path: creature/jaina3/jaina3 1/creature/jaina3/jaina3_bone_0/creature/jaina3/jaina3_bone_1/creature/jaina3/jaina3_bone_2/creature/jaina3/jaina3_bone_5
    m_Weight: 0
  - m_Path: creature/jaina3/jaina3 1/creature/jaina3/jaina3_bone_0/creature/jaina3/jaina3_bone_1/creature/jaina3/jaina3_bone_2/creature/jaina3/jaina3_bone_5/creature/jaina3/jaina3_bone_10
    m_Weight: 0
  - m_Path: creature/jaina3/jaina3 1/creature/jaina3/jaina3_bone_0/creature/jaina3/jaina3_bone_1/creature/jaina3/jaina3_bone_2/creature/jaina3/jaina3_bone_5/creature/jaina3/jaina3_bone_11
    m_Weight: 0
  - m_Path: creature/jaina3/jaina3 1/creature/jaina3/jaina3_bone_0/creature/jaina3/jaina3_bone_1/creature/jaina3/jaina3_bone_2/creature/jaina3/jaina3_bone_5/creature/jaina3/jaina3_bone_11/creature/jaina3/jaina3_bone_16
    m_Weight: 0
  - m_Path: creature/jaina3/jaina3 1/creature/jaina3/jaina3_bone_0/creature/jaina3/jaina3_bone_1/creature/jaina3/jaina3_bone_2/creature/jaina3/jaina3_bone_5/creature/jaina3/jaina3_bone_11/creature/jaina3/jaina3_bone_16/creature/jaina3/jaina3_bone_24
    m_Weight: 0
  - m_Path: creature/jaina3/jaina3 1/creature/jaina3/jaina3_bone_0/creature/jaina3/jaina3_bone_1/creature/jaina3/jaina3_bone_2/creature/jaina3/jaina3_bone_5/creature/jaina3/jaina3_bone_11/creature/jaina3/jaina3_bone_16/creature/jaina3/jaina3_bone_24/creature/jaina3/jaina3_bone_30
    m_Weight: 0
  - m_Path: creature/jaina3/jaina3 1/creature/jaina3/jaina3_bone_0/creature/jaina3/jaina3_bone_1/creature/jaina3/jaina3_bone_2/creature/jaina3/jaina3_bone_5/creature/jaina3/jaina3_bone_11/creature/jaina3/jaina3_bone_16/creature/jaina3/jaina3_bone_24/creature/jaina3/jaina3_bone_169
    m_Weight: 0
  - m_Path: creature/jaina3/jaina3 1/creature/jaina3/jaina3_bone_0/creature/jaina3/jaina3_bone_1/creature/jaina3/jaina3_bone_2/creature/jaina3/jaina3_bone_5/creature/jaina3/jaina3_bone_11/creature/jaina3/jaina3_bone_16/creature/jaina3/jaina3_bone_24/creature/jaina3/jaina3_bone_169/creature/jaina3/jaina3_bone_175
    m_Weight: 0
  - m_Path: creature/jaina3/jaina3 1/creature/jaina3/jaina3_bone_0/creature/jaina3/jaina3_bone_1/creature/jaina3/jaina3_bone_2/creature/jaina3/jaina3_bone_5/creature/jaina3/jaina3_bone_11/creature/jaina3/jaina3_bone_154
    m_Weight: 0
  - m_Path: creature/jaina3/jaina3 1/creature/jaina3/jaina3_bone_0/creature/jaina3/jaina3_bone_1/creature/jaina3/jaina3_bone_2/creature/jaina3/jaina3_bone_5/creature/jaina3/jaina3_bone_150
    m_Weight: 0
  - m_Path: creature/jaina3/jaina3 1/creature/jaina3/jaina3_bone_0/creature/jaina3/jaina3_bone_1/creature/jaina3/jaina3_bone_2/creature/jaina3/jaina3_bone_6
    m_Weight: 0
  - m_Path: creature/jaina3/jaina3 1/creature/jaina3/jaina3_bone_0/creature/jaina3/jaina3_bone_1/creature/jaina3/jaina3_bone_2/creature/jaina3/jaina3_bone_6/creature/jaina3/jaina3_bone_152
    m_Weight: 0
  - m_Path: creature/jaina3/jaina3 1/creature/jaina3/jaina3_bone_0/creature/jaina3/jaina3_bone_1/creature/jaina3/jaina3_bone_2/creature/jaina3/jaina3_bone_7
    m_Weight: 0
  - m_Path: creature/jaina3/jaina3 1/creature/jaina3/jaina3_bone_0/creature/jaina3/jaina3_bone_1/creature/jaina3/jaina3_bone_2/creature/jaina3/jaina3_bone_7/creature/jaina3/jaina3_bone_12
    m_Weight: 0
  - m_Path: creature/jaina3/jaina3 1/creature/jaina3/jaina3_bone_0/creature/jaina3/jaina3_bone_1/creature/jaina3/jaina3_bone_2/creature/jaina3/jaina3_bone_7/creature/jaina3/jaina3_bone_12/creature/jaina3/jaina3_bone_17
    m_Weight: 0
  - m_Path: creature/jaina3/jaina3 1/creature/jaina3/jaina3_bone_0/creature/jaina3/jaina3_bone_1/creature/jaina3/jaina3_bone_2/creature/jaina3/jaina3_bone_7/creature/jaina3/jaina3_bone_12/creature/jaina3/jaina3_bone_17/creature/jaina3/jaina3_bone_25
    m_Weight: 0
  - m_Path: creature/jaina3/jaina3 1/creature/jaina3/jaina3_bone_0/creature/jaina3/jaina3_bone_1/creature/jaina3/jaina3_bone_2/creature/jaina3/jaina3_bone_7/creature/jaina3/jaina3_bone_12/creature/jaina3/jaina3_bone_17/creature/jaina3/jaina3_bone_25/creature/jaina3/jaina3_bone_31
    m_Weight: 0
  - m_Path: creature/jaina3/jaina3 1/creature/jaina3/jaina3_bone_0/creature/jaina3/jaina3_bone_1/creature/jaina3/jaina3_bone_2/creature/jaina3/jaina3_bone_7/creature/jaina3/jaina3_bone_12/creature/jaina3/jaina3_bone_17/creature/jaina3/jaina3_bone_25/creature/jaina3/jaina3_bone_168
    m_Weight: 0
  - m_Path: creature/jaina3/jaina3 1/creature/jaina3/jaina3_bone_0/creature/jaina3/jaina3_bone_1/creature/jaina3/jaina3_bone_2/creature/jaina3/jaina3_bone_7/creature/jaina3/jaina3_bone_12/creature/jaina3/jaina3_bone_17/creature/jaina3/jaina3_bone_25/creature/jaina3/jaina3_bone_168/creature/jaina3/jaina3_bone_176
    m_Weight: 0
  - m_Path: creature/jaina3/jaina3 1/creature/jaina3/jaina3_bone_0/creature/jaina3/jaina3_bone_1/creature/jaina3/jaina3_bone_2/creature/jaina3/jaina3_bone_7/creature/jaina3/jaina3_bone_12/creature/jaina3/jaina3_bone_155
    m_Weight: 0
  - m_Path: creature/jaina3/jaina3 1/creature/jaina3/jaina3_bone_0/creature/jaina3/jaina3_bone_1/creature/jaina3/jaina3_bone_2/creature/jaina3/jaina3_bone_7/creature/jaina3/jaina3_bone_13
    m_Weight: 0
  - m_Path: creature/jaina3/jaina3 1/creature/jaina3/jaina3_bone_0/creature/jaina3/jaina3_bone_1/creature/jaina3/jaina3_bone_2/creature/jaina3/jaina3_bone_7/creature/jaina3/jaina3_bone_151
    m_Weight: 0
  - m_Path: creature/jaina3/jaina3 1/creature/jaina3/jaina3_bone_0/creature/jaina3/jaina3_bone_1/creature/jaina3/jaina3_bone_2/creature/jaina3/jaina3_bone_136
    m_Weight: 0
  - m_Path: creature/jaina3/jaina3 1/creature/jaina3/jaina3_bone_0/creature/jaina3/jaina3_bone_1/creature/jaina3/jaina3_bone_2/creature/jaina3/jaina3_bone_137
    m_Weight: 0
  - m_Path: creature/jaina3/jaina3 1/creature/jaina3/jaina3_bone_0/creature/jaina3/jaina3_bone_1/creature/jaina3/jaina3_bone_3
    m_Weight: 0
  - m_Path: creature/jaina3/jaina3 1/creature/jaina3/jaina3_bone_0/creature/jaina3/jaina3_bone_1/creature/jaina3/jaina3_bone_3/creature/jaina3/jaina3_bone_8
    m_Weight: 0
  - m_Path: creature/jaina3/jaina3 1/creature/jaina3/jaina3_bone_0/creature/jaina3/jaina3_bone_1/creature/jaina3/jaina3_bone_3/creature/jaina3/jaina3_bone_8/creature/jaina3/jaina3_bone_14
    m_Weight: 0
  - m_Path: creature/jaina3/jaina3 1/creature/jaina3/jaina3_bone_0/creature/jaina3/jaina3_bone_1/creature/jaina3/jaina3_bone_3/creature/jaina3/jaina3_bone_8/creature/jaina3/jaina3_bone_14/creature/jaina3/jaina3_bone_18
    m_Weight: 0
  - m_Path: creature/jaina3/jaina3 1/creature/jaina3/jaina3_bone_0/creature/jaina3/jaina3_bone_1/creature/jaina3/jaina3_bone_3/creature/jaina3/jaina3_bone_8/creature/jaina3/jaina3_bone_14/creature/jaina3/jaina3_bone_18/creature/jaina3/jaina3_bone_26
    m_Weight: 0
  - m_Path: creature/jaina3/jaina3 1/creature/jaina3/jaina3_bone_0/creature/jaina3/jaina3_bone_1/creature/jaina3/jaina3_bone_3/creature/jaina3/jaina3_bone_8/creature/jaina3/jaina3_bone_14/creature/jaina3/jaina3_bone_18/creature/jaina3/jaina3_bone_26/creature/jaina3/jaina3_bone_32
    m_Weight: 0
  - m_Path: creature/jaina3/jaina3 1/creature/jaina3/jaina3_bone_0/creature/jaina3/jaina3_bone_1/creature/jaina3/jaina3_bone_3/creature/jaina3/jaina3_bone_8/creature/jaina3/jaina3_bone_14/creature/jaina3/jaina3_bone_18/creature/jaina3/jaina3_bone_26/creature/jaina3/jaina3_bone_33
    m_Weight: 0
  - m_Path: creature/jaina3/jaina3 1/creature/jaina3/jaina3_bone_0/creature/jaina3/jaina3_bone_1/creature/jaina3/jaina3_bone_3/creature/jaina3/jaina3_bone_8/creature/jaina3/jaina3_bone_14/creature/jaina3/jaina3_bone_18/creature/jaina3/jaina3_bone_26/creature/jaina3/jaina3_bone_34
    m_Weight: 0
  - m_Path: creature/jaina3/jaina3 1/creature/jaina3/jaina3_bone_0/creature/jaina3/jaina3_bone_1/creature/jaina3/jaina3_bone_3/creature/jaina3/jaina3_bone_8/creature/jaina3/jaina3_bone_14/creature/jaina3/jaina3_bone_18/creature/jaina3/jaina3_bone_26/creature/jaina3/jaina3_bone_34/creature/jaina3/jaina3_bone_40
    m_Weight: 0
  - m_Path: creature/jaina3/jaina3 1/creature/jaina3/jaina3_bone_0/creature/jaina3/jaina3_bone_1/creature/jaina3/jaina3_bone_3/creature/jaina3/jaina3_bone_8/creature/jaina3/jaina3_bone_14/creature/jaina3/jaina3_bone_18/creature/jaina3/jaina3_bone_26/creature/jaina3/jaina3_bone_34/creature/jaina3/jaina3_bone_40/creature/jaina3/jaina3_bone_82
    m_Weight: 0
  - m_Path: creature/jaina3/jaina3 1/creature/jaina3/jaina3_bone_0/creature/jaina3/jaina3_bone_1/creature/jaina3/jaina3_bone_3/creature/jaina3/jaina3_bone_8/creature/jaina3/jaina3_bone_14/creature/jaina3/jaina3_bone_18/creature/jaina3/jaina3_bone_26/creature/jaina3/jaina3_bone_34/creature/jaina3/jaina3_bone_40/creature/jaina3/jaina3_bone_82/creature/jaina3/jaina3_bone_104
    m_Weight: 0
  - m_Path: creature/jaina3/jaina3 1/creature/jaina3/jaina3_bone_0/creature/jaina3/jaina3_bone_1/creature/jaina3/jaina3_bone_3/creature/jaina3/jaina3_bone_8/creature/jaina3/jaina3_bone_14/creature/jaina3/jaina3_bone_18/creature/jaina3/jaina3_bone_26/creature/jaina3/jaina3_bone_34/creature/jaina3/jaina3_bone_40/creature/jaina3/jaina3_bone_83
    m_Weight: 0
  - m_Path: creature/jaina3/jaina3 1/creature/jaina3/jaina3_bone_0/creature/jaina3/jaina3_bone_1/creature/jaina3/jaina3_bone_3/creature/jaina3/jaina3_bone_8/creature/jaina3/jaina3_bone_14/creature/jaina3/jaina3_bone_18/creature/jaina3/jaina3_bone_26/creature/jaina3/jaina3_bone_34/creature/jaina3/jaina3_bone_40/creature/jaina3/jaina3_bone_83/creature/jaina3/jaina3_bone_105
    m_Weight: 0
  - m_Path: creature/jaina3/jaina3 1/creature/jaina3/jaina3_bone_0/creature/jaina3/jaina3_bone_1/creature/jaina3/jaina3_bone_3/creature/jaina3/jaina3_bone_8/creature/jaina3/jaina3_bone_14/creature/jaina3/jaina3_bone_18/creature/jaina3/jaina3_bone_26/creature/jaina3/jaina3_bone_34/creature/jaina3/jaina3_bone_40/creature/jaina3/jaina3_bone_84
    m_Weight: 0
  - m_Path: creature/jaina3/jaina3 1/creature/jaina3/jaina3_bone_0/creature/jaina3/jaina3_bone_1/creature/jaina3/jaina3_bone_3/creature/jaina3/jaina3_bone_8/creature/jaina3/jaina3_bone_14/creature/jaina3/jaina3_bone_18/creature/jaina3/jaina3_bone_26/creature/jaina3/jaina3_bone_34/creature/jaina3/jaina3_bone_40/creature/jaina3/jaina3_bone_84/creature/jaina3/jaina3_bone_106
    m_Weight: 0
  - m_Path: creature/jaina3/jaina3 1/creature/jaina3/jaina3_bone_0/creature/jaina3/jaina3_bone_1/creature/jaina3/jaina3_bone_3/creature/jaina3/jaina3_bone_8/creature/jaina3/jaina3_bone_14/creature/jaina3/jaina3_bone_18/creature/jaina3/jaina3_bone_26/creature/jaina3/jaina3_bone_34/creature/jaina3/jaina3_bone_40/creature/jaina3/jaina3_bone_85
    m_Weight: 0
  - m_Path: creature/jaina3/jaina3 1/creature/jaina3/jaina3_bone_0/creature/jaina3/jaina3_bone_1/creature/jaina3/jaina3_bone_3/creature/jaina3/jaina3_bone_8/creature/jaina3/jaina3_bone_14/creature/jaina3/jaina3_bone_18/creature/jaina3/jaina3_bone_26/creature/jaina3/jaina3_bone_34/creature/jaina3/jaina3_bone_40/creature/jaina3/jaina3_bone_85/creature/jaina3/jaina3_bone_107
    m_Weight: 0
  - m_Path: creature/jaina3/jaina3 1/creature/jaina3/jaina3_bone_0/creature/jaina3/jaina3_bone_1/creature/jaina3/jaina3_bone_3/creature/jaina3/jaina3_bone_8/creature/jaina3/jaina3_bone_14/creature/jaina3/jaina3_bone_18/creature/jaina3/jaina3_bone_26/creature/jaina3/jaina3_bone_34/creature/jaina3/jaina3_bone_40/creature/jaina3/jaina3_bone_86
    m_Weight: 0
  - m_Path: creature/jaina3/jaina3 1/creature/jaina3/jaina3_bone_0/creature/jaina3/jaina3_bone_1/creature/jaina3/jaina3_bone_3/creature/jaina3/jaina3_bone_8/creature/jaina3/jaina3_bone_14/creature/jaina3/jaina3_bone_18/creature/jaina3/jaina3_bone_26/creature/jaina3/jaina3_bone_34/creature/jaina3/jaina3_bone_40/creature/jaina3/jaina3_bone_86/creature/jaina3/jaina3_bone_108
    m_Weight: 0
  - m_Path: creature/jaina3/jaina3 1/creature/jaina3/jaina3_bone_0/creature/jaina3/jaina3_bone_1/creature/jaina3/jaina3_bone_3/creature/jaina3/jaina3_bone_8/creature/jaina3/jaina3_bone_14/creature/jaina3/jaina3_bone_18/creature/jaina3/jaina3_bone_26/creature/jaina3/jaina3_bone_34/creature/jaina3/jaina3_bone_40/creature/jaina3/jaina3_bone_87
    m_Weight: 0
  - m_Path: creature/jaina3/jaina3 1/creature/jaina3/jaina3_bone_0/creature/jaina3/jaina3_bone_1/creature/jaina3/jaina3_bone_3/creature/jaina3/jaina3_bone_8/creature/jaina3/jaina3_bone_14/creature/jaina3/jaina3_bone_18/creature/jaina3/jaina3_bone_26/creature/jaina3/jaina3_bone_34/creature/jaina3/jaina3_bone_40/creature/jaina3/jaina3_bone_87/creature/jaina3/jaina3_bone_187
    m_Weight: 0
  - m_Path: creature/jaina3/jaina3 1/creature/jaina3/jaina3_bone_0/creature/jaina3/jaina3_bone_1/creature/jaina3/jaina3_bone_3/creature/jaina3/jaina3_bone_8/creature/jaina3/jaina3_bone_14/creature/jaina3/jaina3_bone_18/creature/jaina3/jaina3_bone_26/creature/jaina3/jaina3_bone_34/creature/jaina3/jaina3_bone_40/creature/jaina3/jaina3_bone_87/creature/jaina3/jaina3_bone_189
    m_Weight: 0
  - m_Path: creature/jaina3/jaina3 1/creature/jaina3/jaina3_bone_0/creature/jaina3/jaina3_bone_1/creature/jaina3/jaina3_bone_3/creature/jaina3/jaina3_bone_8/creature/jaina3/jaina3_bone_14/creature/jaina3/jaina3_bone_18/creature/jaina3/jaina3_bone_26/creature/jaina3/jaina3_bone_34/creature/jaina3/jaina3_bone_40/creature/jaina3/jaina3_bone_87/creature/jaina3/jaina3_bone_190
    m_Weight: 0
  - m_Path: creature/jaina3/jaina3 1/creature/jaina3/jaina3_bone_0/creature/jaina3/jaina3_bone_1/creature/jaina3/jaina3_bone_3/creature/jaina3/jaina3_bone_8/creature/jaina3/jaina3_bone_14/creature/jaina3/jaina3_bone_18/creature/jaina3/jaina3_bone_26/creature/jaina3/jaina3_bone_34/creature/jaina3/jaina3_bone_40/creature/jaina3/jaina3_bone_87/creature/jaina3/jaina3_bone_190/creature/jaina3/jaina3_bone_193
    m_Weight: 0
  - m_Path: creature/jaina3/jaina3 1/creature/jaina3/jaina3_bone_0/creature/jaina3/jaina3_bone_1/creature/jaina3/jaina3_bone_3/creature/jaina3/jaina3_bone_8/creature/jaina3/jaina3_bone_14/creature/jaina3/jaina3_bone_18/creature/jaina3/jaina3_bone_26/creature/jaina3/jaina3_bone_34/creature/jaina3/jaina3_bone_40/creature/jaina3/jaina3_bone_87/creature/jaina3/jaina3_bone_191
    m_Weight: 0
  - m_Path: creature/jaina3/jaina3 1/creature/jaina3/jaina3_bone_0/creature/jaina3/jaina3_bone_1/creature/jaina3/jaina3_bone_3/creature/jaina3/jaina3_bone_8/creature/jaina3/jaina3_bone_14/creature/jaina3/jaina3_bone_18/creature/jaina3/jaina3_bone_26/creature/jaina3/jaina3_bone_34/creature/jaina3/jaina3_bone_40/creature/jaina3/jaina3_bone_88
    m_Weight: 0
  - m_Path: creature/jaina3/jaina3 1/creature/jaina3/jaina3_bone_0/creature/jaina3/jaina3_bone_1/creature/jaina3/jaina3_bone_3/creature/jaina3/jaina3_bone_8/creature/jaina3/jaina3_bone_14/creature/jaina3/jaina3_bone_18/creature/jaina3/jaina3_bone_26/creature/jaina3/jaina3_bone_34/creature/jaina3/jaina3_bone_40/creature/jaina3/jaina3_bone_88/creature/jaina3/jaina3_bone_186
    m_Weight: 0
  - m_Path: creature/jaina3/jaina3 1/creature/jaina3/jaina3_bone_0/creature/jaina3/jaina3_bone_1/creature/jaina3/jaina3_bone_3/creature/jaina3/jaina3_bone_8/creature/jaina3/jaina3_bone_14/creature/jaina3/jaina3_bone_18/creature/jaina3/jaina3_bone_26/creature/jaina3/jaina3_bone_34/creature/jaina3/jaina3_bone_41
    m_Weight: 0
  - m_Path: creature/jaina3/jaina3 1/creature/jaina3/jaina3_bone_0/creature/jaina3/jaina3_bone_1/creature/jaina3/jaina3_bone_3/creature/jaina3/jaina3_bone_8/creature/jaina3/jaina3_bone_14/creature/jaina3/jaina3_bone_18/creature/jaina3/jaina3_bone_26/creature/jaina3/jaina3_bone_34/creature/jaina3/jaina3_bone_42
    m_Weight: 0
  - m_Path: creature/jaina3/jaina3 1/creature/jaina3/jaina3_bone_0/creature/jaina3/jaina3_bone_1/creature/jaina3/jaina3_bone_3/creature/jaina3/jaina3_bone_8/creature/jaina3/jaina3_bone_14/creature/jaina3/jaina3_bone_18/creature/jaina3/jaina3_bone_26/creature/jaina3/jaina3_bone_34/creature/jaina3/jaina3_bone_43
    m_Weight: 0
  - m_Path: creature/jaina3/jaina3 1/creature/jaina3/jaina3_bone_0/creature/jaina3/jaina3_bone_1/creature/jaina3/jaina3_bone_3/creature/jaina3/jaina3_bone_8/creature/jaina3/jaina3_bone_14/creature/jaina3/jaina3_bone_18/creature/jaina3/jaina3_bone_26/creature/jaina3/jaina3_bone_34/creature/jaina3/jaina3_bone_43/creature/jaina3/jaina3_bone_179
    m_Weight: 0
  - m_Path: creature/jaina3/jaina3 1/creature/jaina3/jaina3_bone_0/creature/jaina3/jaina3_bone_1/creature/jaina3/jaina3_bone_3/creature/jaina3/jaina3_bone_8/creature/jaina3/jaina3_bone_14/creature/jaina3/jaina3_bone_18/creature/jaina3/jaina3_bone_26/creature/jaina3/jaina3_bone_34/creature/jaina3/jaina3_bone_43/creature/jaina3/jaina3_bone_182
    m_Weight: 0
  - m_Path: creature/jaina3/jaina3 1/creature/jaina3/jaina3_bone_0/creature/jaina3/jaina3_bone_1/creature/jaina3/jaina3_bone_3/creature/jaina3/jaina3_bone_8/creature/jaina3/jaina3_bone_14/creature/jaina3/jaina3_bone_18/creature/jaina3/jaina3_bone_26/creature/jaina3/jaina3_bone_34/creature/jaina3/jaina3_bone_171
    m_Weight: 0
  - m_Path: creature/jaina3/jaina3 1/creature/jaina3/jaina3_bone_0/creature/jaina3/jaina3_bone_1/creature/jaina3/jaina3_bone_3/creature/jaina3/jaina3_bone_8/creature/jaina3/jaina3_bone_14/creature/jaina3/jaina3_bone_18/creature/jaina3/jaina3_bone_26/creature/jaina3/jaina3_bone_167
    m_Weight: 0
  - m_Path: creature/jaina3/jaina3 1/creature/jaina3/jaina3_bone_0/creature/jaina3/jaina3_bone_1/creature/jaina3/jaina3_bone_3/creature/jaina3/jaina3_bone_8/creature/jaina3/jaina3_bone_14/creature/jaina3/jaina3_bone_19
    m_Weight: 0
  - m_Path: creature/jaina3/jaina3 1/creature/jaina3/jaina3_bone_0/creature/jaina3/jaina3_bone_1/creature/jaina3/jaina3_bone_3/creature/jaina3/jaina3_bone_8/creature/jaina3/jaina3_bone_14/creature/jaina3/jaina3_bone_19/creature/jaina3/jaina3_bone_27
    m_Weight: 0
  - m_Path: creature/jaina3/jaina3 1/creature/jaina3/jaina3_bone_0/creature/jaina3/jaina3_bone_1/creature/jaina3/jaina3_bone_3/creature/jaina3/jaina3_bone_8/creature/jaina3/jaina3_bone_14/creature/jaina3/jaina3_bone_19/creature/jaina3/jaina3_bone_27/creature/jaina3/jaina3_bone_35
    m_Weight: 0
  - m_Path: creature/jaina3/jaina3 1/creature/jaina3/jaina3_bone_0/creature/jaina3/jaina3_bone_1/creature/jaina3/jaina3_bone_3/creature/jaina3/jaina3_bone_8/creature/jaina3/jaina3_bone_14/creature/jaina3/jaina3_bone_19/creature/jaina3/jaina3_bone_27/creature/jaina3/jaina3_bone_36
    m_Weight: 0
  - m_Path: creature/jaina3/jaina3 1/creature/jaina3/jaina3_bone_0/creature/jaina3/jaina3_bone_1/creature/jaina3/jaina3_bone_3/creature/jaina3/jaina3_bone_8/creature/jaina3/jaina3_bone_14/creature/jaina3/jaina3_bone_19/creature/jaina3/jaina3_bone_27/creature/jaina3/jaina3_bone_36/creature/jaina3/jaina3_bone_44
    m_Weight: 0
  - m_Path: creature/jaina3/jaina3 1/creature/jaina3/jaina3_bone_0/creature/jaina3/jaina3_bone_1/creature/jaina3/jaina3_bone_3/creature/jaina3/jaina3_bone_8/creature/jaina3/jaina3_bone_14/creature/jaina3/jaina3_bone_19/creature/jaina3/jaina3_bone_27/creature/jaina3/jaina3_bone_36/creature/jaina3/jaina3_bone_45
    m_Weight: 0
  - m_Path: creature/jaina3/jaina3 1/creature/jaina3/jaina3_bone_0/creature/jaina3/jaina3_bone_1/creature/jaina3/jaina3_bone_3/creature/jaina3/jaina3_bone_8/creature/jaina3/jaina3_bone_14/creature/jaina3/jaina3_bone_19/creature/jaina3/jaina3_bone_27/creature/jaina3/jaina3_bone_36/creature/jaina3/jaina3_bone_46
    m_Weight: 0
  - m_Path: creature/jaina3/jaina3 1/creature/jaina3/jaina3_bone_0/creature/jaina3/jaina3_bone_1/creature/jaina3/jaina3_bone_3/creature/jaina3/jaina3_bone_8/creature/jaina3/jaina3_bone_14/creature/jaina3/jaina3_bone_19/creature/jaina3/jaina3_bone_27/creature/jaina3/jaina3_bone_36/creature/jaina3/jaina3_bone_46/creature/jaina3/jaina3_bone_89
    m_Weight: 1
  - m_Path: creature/jaina3/jaina3 1/creature/jaina3/jaina3_bone_0/creature/jaina3/jaina3_bone_1/creature/jaina3/jaina3_bone_3/creature/jaina3/jaina3_bone_8/creature/jaina3/jaina3_bone_14/creature/jaina3/jaina3_bone_19/creature/jaina3/jaina3_bone_27/creature/jaina3/jaina3_bone_36/creature/jaina3/jaina3_bone_46/creature/jaina3/jaina3_bone_89/creature/jaina3/jaina3_bone_109
    m_Weight: 1
  - m_Path: creature/jaina3/jaina3 1/creature/jaina3/jaina3_bone_0/creature/jaina3/jaina3_bone_1/creature/jaina3/jaina3_bone_3/creature/jaina3/jaina3_bone_8/creature/jaina3/jaina3_bone_14/creature/jaina3/jaina3_bone_19/creature/jaina3/jaina3_bone_27/creature/jaina3/jaina3_bone_36/creature/jaina3/jaina3_bone_46/creature/jaina3/jaina3_bone_90
    m_Weight: 1
  - m_Path: creature/jaina3/jaina3 1/creature/jaina3/jaina3_bone_0/creature/jaina3/jaina3_bone_1/creature/jaina3/jaina3_bone_3/creature/jaina3/jaina3_bone_8/creature/jaina3/jaina3_bone_14/creature/jaina3/jaina3_bone_19/creature/jaina3/jaina3_bone_27/creature/jaina3/jaina3_bone_36/creature/jaina3/jaina3_bone_46/creature/jaina3/jaina3_bone_90/creature/jaina3/jaina3_bone_110
    m_Weight: 1
  - m_Path: creature/jaina3/jaina3 1/creature/jaina3/jaina3_bone_0/creature/jaina3/jaina3_bone_1/creature/jaina3/jaina3_bone_3/creature/jaina3/jaina3_bone_8/creature/jaina3/jaina3_bone_14/creature/jaina3/jaina3_bone_19/creature/jaina3/jaina3_bone_27/creature/jaina3/jaina3_bone_36/creature/jaina3/jaina3_bone_46/creature/jaina3/jaina3_bone_91
    m_Weight: 1
  - m_Path: creature/jaina3/jaina3 1/creature/jaina3/jaina3_bone_0/creature/jaina3/jaina3_bone_1/creature/jaina3/jaina3_bone_3/creature/jaina3/jaina3_bone_8/creature/jaina3/jaina3_bone_14/creature/jaina3/jaina3_bone_19/creature/jaina3/jaina3_bone_27/creature/jaina3/jaina3_bone_36/creature/jaina3/jaina3_bone_46/creature/jaina3/jaina3_bone_91/creature/jaina3/jaina3_bone_111
    m_Weight: 1
  - m_Path: creature/jaina3/jaina3 1/creature/jaina3/jaina3_bone_0/creature/jaina3/jaina3_bone_1/creature/jaina3/jaina3_bone_3/creature/jaina3/jaina3_bone_8/creature/jaina3/jaina3_bone_14/creature/jaina3/jaina3_bone_19/creature/jaina3/jaina3_bone_27/creature/jaina3/jaina3_bone_36/creature/jaina3/jaina3_bone_46/creature/jaina3/jaina3_bone_92
    m_Weight: 1
  - m_Path: creature/jaina3/jaina3 1/creature/jaina3/jaina3_bone_0/creature/jaina3/jaina3_bone_1/creature/jaina3/jaina3_bone_3/creature/jaina3/jaina3_bone_8/creature/jaina3/jaina3_bone_14/creature/jaina3/jaina3_bone_19/creature/jaina3/jaina3_bone_27/creature/jaina3/jaina3_bone_36/creature/jaina3/jaina3_bone_46/creature/jaina3/jaina3_bone_92/creature/jaina3/jaina3_bone_112
    m_Weight: 1
  - m_Path: creature/jaina3/jaina3 1/creature/jaina3/jaina3_bone_0/creature/jaina3/jaina3_bone_1/creature/jaina3/jaina3_bone_3/creature/jaina3/jaina3_bone_8/creature/jaina3/jaina3_bone_14/creature/jaina3/jaina3_bone_19/creature/jaina3/jaina3_bone_27/creature/jaina3/jaina3_bone_36/creature/jaina3/jaina3_bone_46/creature/jaina3/jaina3_bone_93
    m_Weight: 1
  - m_Path: creature/jaina3/jaina3 1/creature/jaina3/jaina3_bone_0/creature/jaina3/jaina3_bone_1/creature/jaina3/jaina3_bone_3/creature/jaina3/jaina3_bone_8/creature/jaina3/jaina3_bone_14/creature/jaina3/jaina3_bone_19/creature/jaina3/jaina3_bone_27/creature/jaina3/jaina3_bone_36/creature/jaina3/jaina3_bone_46/creature/jaina3/jaina3_bone_93/creature/jaina3/jaina3_bone_113
    m_Weight: 1
  - m_Path: creature/jaina3/jaina3 1/creature/jaina3/jaina3_bone_0/creature/jaina3/jaina3_bone_1/creature/jaina3/jaina3_bone_3/creature/jaina3/jaina3_bone_8/creature/jaina3/jaina3_bone_14/creature/jaina3/jaina3_bone_19/creature/jaina3/jaina3_bone_27/creature/jaina3/jaina3_bone_36/creature/jaina3/jaina3_bone_46/creature/jaina3/jaina3_bone_94
    m_Weight: 1
  - m_Path: creature/jaina3/jaina3 1/creature/jaina3/jaina3_bone_0/creature/jaina3/jaina3_bone_1/creature/jaina3/jaina3_bone_3/creature/jaina3/jaina3_bone_8/creature/jaina3/jaina3_bone_14/creature/jaina3/jaina3_bone_19/creature/jaina3/jaina3_bone_27/creature/jaina3/jaina3_bone_36/creature/jaina3/jaina3_bone_46/creature/jaina3/jaina3_bone_94/creature/jaina3/jaina3_bone_188
    m_Weight: 1
  - m_Path: creature/jaina3/jaina3 1/creature/jaina3/jaina3_bone_0/creature/jaina3/jaina3_bone_1/creature/jaina3/jaina3_bone_3/creature/jaina3/jaina3_bone_8/creature/jaina3/jaina3_bone_14/creature/jaina3/jaina3_bone_19/creature/jaina3/jaina3_bone_27/creature/jaina3/jaina3_bone_36/creature/jaina3/jaina3_bone_46/creature/jaina3/jaina3_bone_94/creature/jaina3/jaina3_bone_192
    m_Weight: 1
  - m_Path: creature/jaina3/jaina3 1/creature/jaina3/jaina3_bone_0/creature/jaina3/jaina3_bone_1/creature/jaina3/jaina3_bone_3/creature/jaina3/jaina3_bone_8/creature/jaina3/jaina3_bone_14/creature/jaina3/jaina3_bone_19/creature/jaina3/jaina3_bone_27/creature/jaina3/jaina3_bone_36/creature/jaina3/jaina3_bone_46/creature/jaina3/jaina3_bone_95
    m_Weight: 1
  - m_Path: creature/jaina3/jaina3 1/creature/jaina3/jaina3_bone_0/creature/jaina3/jaina3_bone_1/creature/jaina3/jaina3_bone_3/creature/jaina3/jaina3_bone_8/creature/jaina3/jaina3_bone_14/creature/jaina3/jaina3_bone_19/creature/jaina3/jaina3_bone_27/creature/jaina3/jaina3_bone_36/creature/jaina3/jaina3_bone_46/creature/jaina3/jaina3_bone_95/creature/jaina3/jaina3_bone_185
    m_Weight: 1
  - m_Path: creature/jaina3/jaina3 1/creature/jaina3/jaina3_bone_0/creature/jaina3/jaina3_bone_1/creature/jaina3/jaina3_bone_3/creature/jaina3/jaina3_bone_8/creature/jaina3/jaina3_bone_14/creature/jaina3/jaina3_bone_19/creature/jaina3/jaina3_bone_27/creature/jaina3/jaina3_bone_36/creature/jaina3/jaina3_bone_46/creature/jaina3/jaina3_bone_180
    m_Weight: 1
  - m_Path: creature/jaina3/jaina3 1/creature/jaina3/jaina3_bone_0/creature/jaina3/jaina3_bone_1/creature/jaina3/jaina3_bone_3/creature/jaina3/jaina3_bone_8/creature/jaina3/jaina3_bone_14/creature/jaina3/jaina3_bone_19/creature/jaina3/jaina3_bone_27/creature/jaina3/jaina3_bone_36/creature/jaina3/jaina3_bone_46/creature/jaina3/jaina3_bone_181
    m_Weight: 1
  - m_Path: creature/jaina3/jaina3 1/creature/jaina3/jaina3_bone_0/creature/jaina3/jaina3_bone_1/creature/jaina3/jaina3_bone_3/creature/jaina3/jaina3_bone_8/creature/jaina3/jaina3_bone_14/creature/jaina3/jaina3_bone_19/creature/jaina3/jaina3_bone_27/creature/jaina3/jaina3_bone_36/creature/jaina3/jaina3_bone_46/creature/jaina3/jaina3_bone_183
    m_Weight: 1
  - m_Path: creature/jaina3/jaina3 1/creature/jaina3/jaina3_bone_0/creature/jaina3/jaina3_bone_1/creature/jaina3/jaina3_bone_3/creature/jaina3/jaina3_bone_8/creature/jaina3/jaina3_bone_14/creature/jaina3/jaina3_bone_19/creature/jaina3/jaina3_bone_27/creature/jaina3/jaina3_bone_36/creature/jaina3/jaina3_bone_46/creature/jaina3/jaina3_bone_184
    m_Weight: 1
  - m_Path: creature/jaina3/jaina3 1/creature/jaina3/jaina3_bone_0/creature/jaina3/jaina3_bone_1/creature/jaina3/jaina3_bone_3/creature/jaina3/jaina3_bone_8/creature/jaina3/jaina3_bone_14/creature/jaina3/jaina3_bone_19/creature/jaina3/jaina3_bone_27/creature/jaina3/jaina3_bone_36/creature/jaina3/jaina3_bone_170
    m_Weight: 0
  - m_Path: creature/jaina3/jaina3 1/creature/jaina3/jaina3_bone_0/creature/jaina3/jaina3_bone_1/creature/jaina3/jaina3_bone_3/creature/jaina3/jaina3_bone_8/creature/jaina3/jaina3_bone_14/creature/jaina3/jaina3_bone_19/creature/jaina3/jaina3_bone_27/creature/jaina3/jaina3_bone_37
    m_Weight: 0
  - m_Path: creature/jaina3/jaina3 1/creature/jaina3/jaina3_bone_0/creature/jaina3/jaina3_bone_1/creature/jaina3/jaina3_bone_3/creature/jaina3/jaina3_bone_8/creature/jaina3/jaina3_bone_14/creature/jaina3/jaina3_bone_19/creature/jaina3/jaina3_bone_27/creature/jaina3/jaina3_bone_166
    m_Weight: 0
  - m_Path: creature/jaina3/jaina3 1/creature/jaina3/jaina3_bone_0/creature/jaina3/jaina3_bone_1/creature/jaina3/jaina3_bone_3/creature/jaina3/jaina3_bone_8/creature/jaina3/jaina3_bone_14/creature/jaina3/jaina3_bone_20
    m_Weight: 0
  - m_Path: creature/jaina3/jaina3 1/creature/jaina3/jaina3_bone_0/creature/jaina3/jaina3_bone_1/creature/jaina3/jaina3_bone_3/creature/jaina3/jaina3_bone_8/creature/jaina3/jaina3_bone_14/creature/jaina3/jaina3_bone_21
    m_Weight: 0
  - m_Path: creature/jaina3/jaina3 1/creature/jaina3/jaina3_bone_0/creature/jaina3/jaina3_bone_1/creature/jaina3/jaina3_bone_3/creature/jaina3/jaina3_bone_8/creature/jaina3/jaina3_bone_14/creature/jaina3/jaina3_bone_21/creature/jaina3/jaina3_bone_28
    m_Weight: 0
  - m_Path: creature/jaina3/jaina3 1/creature/jaina3/jaina3_bone_0/creature/jaina3/jaina3_bone_1/creature/jaina3/jaina3_bone_3/creature/jaina3/jaina3_bone_8/creature/jaina3/jaina3_bone_14/creature/jaina3/jaina3_bone_21/creature/jaina3/jaina3_bone_28/creature/jaina3/jaina3_bone_38
    m_Weight: 0
  - m_Path: creature/jaina3/jaina3 1/creature/jaina3/jaina3_bone_0/creature/jaina3/jaina3_bone_1/creature/jaina3/jaina3_bone_3/creature/jaina3/jaina3_bone_8/creature/jaina3/jaina3_bone_14/creature/jaina3/jaina3_bone_21/creature/jaina3/jaina3_bone_28/creature/jaina3/jaina3_bone_38/creature/jaina3/jaina3_bone_47
    m_Weight: 0
  - m_Path: creature/jaina3/jaina3 1/creature/jaina3/jaina3_bone_0/creature/jaina3/jaina3_bone_1/creature/jaina3/jaina3_bone_3/creature/jaina3/jaina3_bone_8/creature/jaina3/jaina3_bone_14/creature/jaina3/jaina3_bone_22
    m_Weight: 0
  - m_Path: creature/jaina3/jaina3 1/creature/jaina3/jaina3_bone_0/creature/jaina3/jaina3_bone_1/creature/jaina3/jaina3_bone_3/creature/jaina3/jaina3_bone_8/creature/jaina3/jaina3_bone_14/creature/jaina3/jaina3_bone_22/creature/jaina3/jaina3_bone_29
    m_Weight: 0
  - m_Path: creature/jaina3/jaina3 1/creature/jaina3/jaina3_bone_0/creature/jaina3/jaina3_bone_1/creature/jaina3/jaina3_bone_3/creature/jaina3/jaina3_bone_8/creature/jaina3/jaina3_bone_14/creature/jaina3/jaina3_bone_22/creature/jaina3/jaina3_bone_29/creature/jaina3/jaina3_bone_39
    m_Weight: 0
  - m_Path: creature/jaina3/jaina3 1/creature/jaina3/jaina3_bone_0/creature/jaina3/jaina3_bone_1/creature/jaina3/jaina3_bone_3/creature/jaina3/jaina3_bone_8/creature/jaina3/jaina3_bone_14/creature/jaina3/jaina3_bone_22/creature/jaina3/jaina3_bone_29/creature/jaina3/jaina3_bone_39/creature/jaina3/jaina3_bone_48
    m_Weight: 0
  - m_Path: creature/jaina3/jaina3 1/creature/jaina3/jaina3_bone_0/creature/jaina3/jaina3_bone_1/creature/jaina3/jaina3_bone_3/creature/jaina3/jaina3_bone_8/creature/jaina3/jaina3_bone_14/creature/jaina3/jaina3_bone_22/creature/jaina3/jaina3_bone_29/creature/jaina3/jaina3_bone_39/creature/jaina3/jaina3_bone_49
    m_Weight: 0
  - m_Path: creature/jaina3/jaina3 1/creature/jaina3/jaina3_bone_0/creature/jaina3/jaina3_bone_1/creature/jaina3/jaina3_bone_3/creature/jaina3/jaina3_bone_8/creature/jaina3/jaina3_bone_14/creature/jaina3/jaina3_bone_22/creature/jaina3/jaina3_bone_29/creature/jaina3/jaina3_bone_39/creature/jaina3/jaina3_bone_50
    m_Weight: 0
  - m_Path: creature/jaina3/jaina3 1/creature/jaina3/jaina3_bone_0/creature/jaina3/jaina3_bone_1/creature/jaina3/jaina3_bone_3/creature/jaina3/jaina3_bone_8/creature/jaina3/jaina3_bone_14/creature/jaina3/jaina3_bone_22/creature/jaina3/jaina3_bone_29/creature/jaina3/jaina3_bone_39/creature/jaina3/jaina3_bone_51
    m_Weight: 0
  - m_Path: creature/jaina3/jaina3 1/creature/jaina3/jaina3_bone_0/creature/jaina3/jaina3_bone_1/creature/jaina3/jaina3_bone_3/creature/jaina3/jaina3_bone_8/creature/jaina3/jaina3_bone_14/creature/jaina3/jaina3_bone_22/creature/jaina3/jaina3_bone_29/creature/jaina3/jaina3_bone_39/creature/jaina3/jaina3_bone_52
    m_Weight: 0
  - m_Path: creature/jaina3/jaina3 1/creature/jaina3/jaina3_bone_0/creature/jaina3/jaina3_bone_1/creature/jaina3/jaina3_bone_3/creature/jaina3/jaina3_bone_8/creature/jaina3/jaina3_bone_14/creature/jaina3/jaina3_bone_22/creature/jaina3/jaina3_bone_29/creature/jaina3/jaina3_bone_39/creature/jaina3/jaina3_bone_53
    m_Weight: 0
  - m_Path: creature/jaina3/jaina3 1/creature/jaina3/jaina3_bone_0/creature/jaina3/jaina3_bone_1/creature/jaina3/jaina3_bone_3/creature/jaina3/jaina3_bone_8/creature/jaina3/jaina3_bone_14/creature/jaina3/jaina3_bone_22/creature/jaina3/jaina3_bone_29/creature/jaina3/jaina3_bone_39/creature/jaina3/jaina3_bone_54
    m_Weight: 0
  - m_Path: creature/jaina3/jaina3 1/creature/jaina3/jaina3_bone_0/creature/jaina3/jaina3_bone_1/creature/jaina3/jaina3_bone_3/creature/jaina3/jaina3_bone_8/creature/jaina3/jaina3_bone_14/creature/jaina3/jaina3_bone_22/creature/jaina3/jaina3_bone_29/creature/jaina3/jaina3_bone_39/creature/jaina3/jaina3_bone_55
    m_Weight: 0
  - m_Path: creature/jaina3/jaina3 1/creature/jaina3/jaina3_bone_0/creature/jaina3/jaina3_bone_1/creature/jaina3/jaina3_bone_3/creature/jaina3/jaina3_bone_8/creature/jaina3/jaina3_bone_14/creature/jaina3/jaina3_bone_22/creature/jaina3/jaina3_bone_29/creature/jaina3/jaina3_bone_39/creature/jaina3/jaina3_bone_56
    m_Weight: 0
  - m_Path: creature/jaina3/jaina3 1/creature/jaina3/jaina3_bone_0/creature/jaina3/jaina3_bone_1/creature/jaina3/jaina3_bone_3/creature/jaina3/jaina3_bone_8/creature/jaina3/jaina3_bone_14/creature/jaina3/jaina3_bone_22/creature/jaina3/jaina3_bone_29/creature/jaina3/jaina3_bone_39/creature/jaina3/jaina3_bone_57
    m_Weight: 0
  - m_Path: creature/jaina3/jaina3 1/creature/jaina3/jaina3_bone_0/creature/jaina3/jaina3_bone_1/creature/jaina3/jaina3_bone_3/creature/jaina3/jaina3_bone_8/creature/jaina3/jaina3_bone_14/creature/jaina3/jaina3_bone_22/creature/jaina3/jaina3_bone_29/creature/jaina3/jaina3_bone_39/creature/jaina3/jaina3_bone_58
    m_Weight: 0
  - m_Path: creature/jaina3/jaina3 1/creature/jaina3/jaina3_bone_0/creature/jaina3/jaina3_bone_1/creature/jaina3/jaina3_bone_3/creature/jaina3/jaina3_bone_8/creature/jaina3/jaina3_bone_14/creature/jaina3/jaina3_bone_22/creature/jaina3/jaina3_bone_29/creature/jaina3/jaina3_bone_39/creature/jaina3/jaina3_bone_59
    m_Weight: 0
  - m_Path: creature/jaina3/jaina3 1/creature/jaina3/jaina3_bone_0/creature/jaina3/jaina3_bone_1/creature/jaina3/jaina3_bone_3/creature/jaina3/jaina3_bone_8/creature/jaina3/jaina3_bone_14/creature/jaina3/jaina3_bone_22/creature/jaina3/jaina3_bone_29/creature/jaina3/jaina3_bone_39/creature/jaina3/jaina3_bone_60
    m_Weight: 0
  - m_Path: creature/jaina3/jaina3 1/creature/jaina3/jaina3_bone_0/creature/jaina3/jaina3_bone_1/creature/jaina3/jaina3_bone_3/creature/jaina3/jaina3_bone_8/creature/jaina3/jaina3_bone_14/creature/jaina3/jaina3_bone_22/creature/jaina3/jaina3_bone_29/creature/jaina3/jaina3_bone_39/creature/jaina3/jaina3_bone_61
    m_Weight: 0
  - m_Path: creature/jaina3/jaina3 1/creature/jaina3/jaina3_bone_0/creature/jaina3/jaina3_bone_1/creature/jaina3/jaina3_bone_3/creature/jaina3/jaina3_bone_8/creature/jaina3/jaina3_bone_14/creature/jaina3/jaina3_bone_22/creature/jaina3/jaina3_bone_29/creature/jaina3/jaina3_bone_39/creature/jaina3/jaina3_bone_62
    m_Weight: 0
  - m_Path: creature/jaina3/jaina3 1/creature/jaina3/jaina3_bone_0/creature/jaina3/jaina3_bone_1/creature/jaina3/jaina3_bone_3/creature/jaina3/jaina3_bone_8/creature/jaina3/jaina3_bone_14/creature/jaina3/jaina3_bone_22/creature/jaina3/jaina3_bone_29/creature/jaina3/jaina3_bone_39/creature/jaina3/jaina3_bone_63
    m_Weight: 0
  - m_Path: creature/jaina3/jaina3 1/creature/jaina3/jaina3_bone_0/creature/jaina3/jaina3_bone_1/creature/jaina3/jaina3_bone_3/creature/jaina3/jaina3_bone_8/creature/jaina3/jaina3_bone_14/creature/jaina3/jaina3_bone_22/creature/jaina3/jaina3_bone_29/creature/jaina3/jaina3_bone_39/creature/jaina3/jaina3_bone_64
    m_Weight: 0
  - m_Path: creature/jaina3/jaina3 1/creature/jaina3/jaina3_bone_0/creature/jaina3/jaina3_bone_1/creature/jaina3/jaina3_bone_3/creature/jaina3/jaina3_bone_8/creature/jaina3/jaina3_bone_14/creature/jaina3/jaina3_bone_22/creature/jaina3/jaina3_bone_29/creature/jaina3/jaina3_bone_39/creature/jaina3/jaina3_bone_65
    m_Weight: 0
  - m_Path: creature/jaina3/jaina3 1/creature/jaina3/jaina3_bone_0/creature/jaina3/jaina3_bone_1/creature/jaina3/jaina3_bone_3/creature/jaina3/jaina3_bone_8/creature/jaina3/jaina3_bone_14/creature/jaina3/jaina3_bone_22/creature/jaina3/jaina3_bone_29/creature/jaina3/jaina3_bone_39/creature/jaina3/jaina3_bone_66
    m_Weight: 0
  - m_Path: creature/jaina3/jaina3 1/creature/jaina3/jaina3_bone_0/creature/jaina3/jaina3_bone_1/creature/jaina3/jaina3_bone_3/creature/jaina3/jaina3_bone_8/creature/jaina3/jaina3_bone_14/creature/jaina3/jaina3_bone_22/creature/jaina3/jaina3_bone_29/creature/jaina3/jaina3_bone_39/creature/jaina3/jaina3_bone_67
    m_Weight: 0
  - m_Path: creature/jaina3/jaina3 1/creature/jaina3/jaina3_bone_0/creature/jaina3/jaina3_bone_1/creature/jaina3/jaina3_bone_3/creature/jaina3/jaina3_bone_8/creature/jaina3/jaina3_bone_14/creature/jaina3/jaina3_bone_22/creature/jaina3/jaina3_bone_29/creature/jaina3/jaina3_bone_39/creature/jaina3/jaina3_bone_68
    m_Weight: 0
  - m_Path: creature/jaina3/jaina3 1/creature/jaina3/jaina3_bone_0/creature/jaina3/jaina3_bone_1/creature/jaina3/jaina3_bone_3/creature/jaina3/jaina3_bone_8/creature/jaina3/jaina3_bone_14/creature/jaina3/jaina3_bone_22/creature/jaina3/jaina3_bone_29/creature/jaina3/jaina3_bone_39/creature/jaina3/jaina3_bone_69
    m_Weight: 0
  - m_Path: creature/jaina3/jaina3 1/creature/jaina3/jaina3_bone_0/creature/jaina3/jaina3_bone_1/creature/jaina3/jaina3_bone_3/creature/jaina3/jaina3_bone_8/creature/jaina3/jaina3_bone_14/creature/jaina3/jaina3_bone_22/creature/jaina3/jaina3_bone_29/creature/jaina3/jaina3_bone_39/creature/jaina3/jaina3_bone_70
    m_Weight: 0
  - m_Path: creature/jaina3/jaina3 1/creature/jaina3/jaina3_bone_0/creature/jaina3/jaina3_bone_1/creature/jaina3/jaina3_bone_3/creature/jaina3/jaina3_bone_8/creature/jaina3/jaina3_bone_14/creature/jaina3/jaina3_bone_22/creature/jaina3/jaina3_bone_29/creature/jaina3/jaina3_bone_39/creature/jaina3/jaina3_bone_71
    m_Weight: 0
  - m_Path: creature/jaina3/jaina3 1/creature/jaina3/jaina3_bone_0/creature/jaina3/jaina3_bone_1/creature/jaina3/jaina3_bone_3/creature/jaina3/jaina3_bone_8/creature/jaina3/jaina3_bone_14/creature/jaina3/jaina3_bone_22/creature/jaina3/jaina3_bone_29/creature/jaina3/jaina3_bone_39/creature/jaina3/jaina3_bone_72
    m_Weight: 0
  - m_Path: creature/jaina3/jaina3 1/creature/jaina3/jaina3_bone_0/creature/jaina3/jaina3_bone_1/creature/jaina3/jaina3_bone_3/creature/jaina3/jaina3_bone_8/creature/jaina3/jaina3_bone_14/creature/jaina3/jaina3_bone_22/creature/jaina3/jaina3_bone_29/creature/jaina3/jaina3_bone_39/creature/jaina3/jaina3_bone_73
    m_Weight: 0
  - m_Path: creature/jaina3/jaina3 1/creature/jaina3/jaina3_bone_0/creature/jaina3/jaina3_bone_1/creature/jaina3/jaina3_bone_3/creature/jaina3/jaina3_bone_8/creature/jaina3/jaina3_bone_14/creature/jaina3/jaina3_bone_22/creature/jaina3/jaina3_bone_29/creature/jaina3/jaina3_bone_39/creature/jaina3/jaina3_bone_74
    m_Weight: 0
  - m_Path: creature/jaina3/jaina3 1/creature/jaina3/jaina3_bone_0/creature/jaina3/jaina3_bone_1/creature/jaina3/jaina3_bone_3/creature/jaina3/jaina3_bone_8/creature/jaina3/jaina3_bone_14/creature/jaina3/jaina3_bone_22/creature/jaina3/jaina3_bone_29/creature/jaina3/jaina3_bone_39/creature/jaina3/jaina3_bone_75
    m_Weight: 0
  - m_Path: creature/jaina3/jaina3 1/creature/jaina3/jaina3_bone_0/creature/jaina3/jaina3_bone_1/creature/jaina3/jaina3_bone_3/creature/jaina3/jaina3_bone_8/creature/jaina3/jaina3_bone_14/creature/jaina3/jaina3_bone_22/creature/jaina3/jaina3_bone_29/creature/jaina3/jaina3_bone_39/creature/jaina3/jaina3_bone_76
    m_Weight: 0
  - m_Path: creature/jaina3/jaina3 1/creature/jaina3/jaina3_bone_0/creature/jaina3/jaina3_bone_1/creature/jaina3/jaina3_bone_3/creature/jaina3/jaina3_bone_8/creature/jaina3/jaina3_bone_14/creature/jaina3/jaina3_bone_22/creature/jaina3/jaina3_bone_29/creature/jaina3/jaina3_bone_39/creature/jaina3/jaina3_bone_77
    m_Weight: 0
  - m_Path: creature/jaina3/jaina3 1/creature/jaina3/jaina3_bone_0/creature/jaina3/jaina3_bone_1/creature/jaina3/jaina3_bone_3/creature/jaina3/jaina3_bone_8/creature/jaina3/jaina3_bone_14/creature/jaina3/jaina3_bone_22/creature/jaina3/jaina3_bone_29/creature/jaina3/jaina3_bone_39/creature/jaina3/jaina3_bone_78
    m_Weight: 0
  - m_Path: creature/jaina3/jaina3 1/creature/jaina3/jaina3_bone_0/creature/jaina3/jaina3_bone_1/creature/jaina3/jaina3_bone_3/creature/jaina3/jaina3_bone_8/creature/jaina3/jaina3_bone_14/creature/jaina3/jaina3_bone_22/creature/jaina3/jaina3_bone_29/creature/jaina3/jaina3_bone_39/creature/jaina3/jaina3_bone_79
    m_Weight: 0
  - m_Path: creature/jaina3/jaina3 1/creature/jaina3/jaina3_bone_0/creature/jaina3/jaina3_bone_1/creature/jaina3/jaina3_bone_3/creature/jaina3/jaina3_bone_8/creature/jaina3/jaina3_bone_14/creature/jaina3/jaina3_bone_22/creature/jaina3/jaina3_bone_29/creature/jaina3/jaina3_bone_39/creature/jaina3/jaina3_bone_80
    m_Weight: 0
  - m_Path: creature/jaina3/jaina3 1/creature/jaina3/jaina3_bone_0/creature/jaina3/jaina3_bone_1/creature/jaina3/jaina3_bone_3/creature/jaina3/jaina3_bone_8/creature/jaina3/jaina3_bone_14/creature/jaina3/jaina3_bone_22/creature/jaina3/jaina3_bone_29/creature/jaina3/jaina3_bone_39/creature/jaina3/jaina3_bone_80/creature/jaina3/jaina3_bone_96
    m_Weight: 0
  - m_Path: creature/jaina3/jaina3 1/creature/jaina3/jaina3_bone_0/creature/jaina3/jaina3_bone_1/creature/jaina3/jaina3_bone_3/creature/jaina3/jaina3_bone_8/creature/jaina3/jaina3_bone_14/creature/jaina3/jaina3_bone_22/creature/jaina3/jaina3_bone_29/creature/jaina3/jaina3_bone_39/creature/jaina3/jaina3_bone_80/creature/jaina3/jaina3_bone_97
    m_Weight: 0
  - m_Path: creature/jaina3/jaina3 1/creature/jaina3/jaina3_bone_0/creature/jaina3/jaina3_bone_1/creature/jaina3/jaina3_bone_3/creature/jaina3/jaina3_bone_8/creature/jaina3/jaina3_bone_14/creature/jaina3/jaina3_bone_22/creature/jaina3/jaina3_bone_29/creature/jaina3/jaina3_bone_39/creature/jaina3/jaina3_bone_80/creature/jaina3/jaina3_bone_98
    m_Weight: 0
  - m_Path: creature/jaina3/jaina3 1/creature/jaina3/jaina3_bone_0/creature/jaina3/jaina3_bone_1/creature/jaina3/jaina3_bone_3/creature/jaina3/jaina3_bone_8/creature/jaina3/jaina3_bone_14/creature/jaina3/jaina3_bone_22/creature/jaina3/jaina3_bone_29/creature/jaina3/jaina3_bone_39/creature/jaina3/jaina3_bone_80/creature/jaina3/jaina3_bone_99
    m_Weight: 0
  - m_Path: creature/jaina3/jaina3 1/creature/jaina3/jaina3_bone_0/creature/jaina3/jaina3_bone_1/creature/jaina3/jaina3_bone_3/creature/jaina3/jaina3_bone_8/creature/jaina3/jaina3_bone_14/creature/jaina3/jaina3_bone_22/creature/jaina3/jaina3_bone_29/creature/jaina3/jaina3_bone_39/creature/jaina3/jaina3_bone_80/creature/jaina3/jaina3_bone_100
    m_Weight: 0
  - m_Path: creature/jaina3/jaina3 1/creature/jaina3/jaina3_bone_0/creature/jaina3/jaina3_bone_1/creature/jaina3/jaina3_bone_3/creature/jaina3/jaina3_bone_8/creature/jaina3/jaina3_bone_14/creature/jaina3/jaina3_bone_22/creature/jaina3/jaina3_bone_29/creature/jaina3/jaina3_bone_39/creature/jaina3/jaina3_bone_80/creature/jaina3/jaina3_bone_101
    m_Weight: 0
  - m_Path: creature/jaina3/jaina3 1/creature/jaina3/jaina3_bone_0/creature/jaina3/jaina3_bone_1/creature/jaina3/jaina3_bone_3/creature/jaina3/jaina3_bone_8/creature/jaina3/jaina3_bone_14/creature/jaina3/jaina3_bone_22/creature/jaina3/jaina3_bone_29/creature/jaina3/jaina3_bone_39/creature/jaina3/jaina3_bone_80/creature/jaina3/jaina3_bone_102
    m_Weight: 0
  - m_Path: creature/jaina3/jaina3 1/creature/jaina3/jaina3_bone_0/creature/jaina3/jaina3_bone_1/creature/jaina3/jaina3_bone_3/creature/jaina3/jaina3_bone_8/creature/jaina3/jaina3_bone_14/creature/jaina3/jaina3_bone_22/creature/jaina3/jaina3_bone_29/creature/jaina3/jaina3_bone_39/creature/jaina3/jaina3_bone_80/creature/jaina3/jaina3_bone_103
    m_Weight: 0
  - m_Path: creature/jaina3/jaina3 1/creature/jaina3/jaina3_bone_0/creature/jaina3/jaina3_bone_1/creature/jaina3/jaina3_bone_3/creature/jaina3/jaina3_bone_8/creature/jaina3/jaina3_bone_14/creature/jaina3/jaina3_bone_22/creature/jaina3/jaina3_bone_29/creature/jaina3/jaina3_bone_39/creature/jaina3/jaina3_bone_81
    m_Weight: 0
  - m_Path: creature/jaina3/jaina3 1/creature/jaina3/jaina3_bone_0/creature/jaina3/jaina3_bone_1/creature/jaina3/jaina3_bone_3/creature/jaina3/jaina3_bone_8/creature/jaina3/jaina3_bone_14/creature/jaina3/jaina3_bone_22/creature/jaina3/jaina3_bone_29/creature/jaina3/jaina3_bone_39/creature/jaina3/jaina3_bone_172
    m_Weight: 0
  - m_Path: creature/jaina3/jaina3 1/creature/jaina3/jaina3_bone_0/creature/jaina3/jaina3_bone_1/creature/jaina3/jaina3_bone_3/creature/jaina3/jaina3_bone_8/creature/jaina3/jaina3_bone_14/creature/jaina3/jaina3_bone_22/creature/jaina3/jaina3_bone_29/creature/jaina3/jaina3_bone_39/creature/jaina3/jaina3_bone_173
    m_Weight: 0
  - m_Path: creature/jaina3/jaina3 1/creature/jaina3/jaina3_bone_0/creature/jaina3/jaina3_bone_1/creature/jaina3/jaina3_bone_3/creature/jaina3/jaina3_bone_8/creature/jaina3/jaina3_bone_14/creature/jaina3/jaina3_bone_22/creature/jaina3/jaina3_bone_29/creature/jaina3/jaina3_bone_39/creature/jaina3/jaina3_bone_174
    m_Weight: 0
  - m_Path: creature/jaina3/jaina3 1/creature/jaina3/jaina3_bone_0/creature/jaina3/jaina3_bone_1/creature/jaina3/jaina3_bone_3/creature/jaina3/jaina3_bone_8/creature/jaina3/jaina3_bone_14/creature/jaina3/jaina3_bone_22/creature/jaina3/jaina3_bone_29/creature/jaina3/jaina3_bone_39/creature/jaina3/jaina3_bone_177
    m_Weight: 0
  - m_Path: creature/jaina3/jaina3 1/creature/jaina3/jaina3_bone_0/creature/jaina3/jaina3_bone_1/creature/jaina3/jaina3_bone_3/creature/jaina3/jaina3_bone_8/creature/jaina3/jaina3_bone_14/creature/jaina3/jaina3_bone_22/creature/jaina3/jaina3_bone_29/creature/jaina3/jaina3_bone_39/creature/jaina3/jaina3_bone_178
    m_Weight: 0
  - m_Path: creature/jaina3/jaina3 1/creature/jaina3/jaina3_bone_0/creature/jaina3/jaina3_bone_1/creature/jaina3/jaina3_bone_3/creature/jaina3/jaina3_bone_8/creature/jaina3/jaina3_bone_14/creature/jaina3/jaina3_bone_23
    m_Weight: 0
  - m_Path: creature/jaina3/jaina3 1/creature/jaina3/jaina3_bone_0/creature/jaina3/jaina3_bone_1/creature/jaina3/jaina3_bone_3/creature/jaina3/jaina3_bone_8/creature/jaina3/jaina3_bone_14/creature/jaina3/jaina3_bone_156
    m_Weight: 0
  - m_Path: creature/jaina3/jaina3 1/creature/jaina3/jaina3_bone_0/creature/jaina3/jaina3_bone_1/creature/jaina3/jaina3_bone_3/creature/jaina3/jaina3_bone_8/creature/jaina3/jaina3_bone_14/creature/jaina3/jaina3_bone_157
    m_Weight: 0
  - m_Path: creature/jaina3/jaina3 1/creature/jaina3/jaina3_bone_0/creature/jaina3/jaina3_bone_1/creature/jaina3/jaina3_bone_3/creature/jaina3/jaina3_bone_8/creature/jaina3/jaina3_bone_14/creature/jaina3/jaina3_bone_158
    m_Weight: 0
  - m_Path: creature/jaina3/jaina3 1/creature/jaina3/jaina3_bone_0/creature/jaina3/jaina3_bone_1/creature/jaina3/jaina3_bone_3/creature/jaina3/jaina3_bone_8/creature/jaina3/jaina3_bone_14/creature/jaina3/jaina3_bone_159
    m_Weight: 0
  - m_Path: creature/jaina3/jaina3 1/creature/jaina3/jaina3_bone_0/creature/jaina3/jaina3_bone_1/creature/jaina3/jaina3_bone_3/creature/jaina3/jaina3_bone_8/creature/jaina3/jaina3_bone_14/creature/jaina3/jaina3_bone_160
    m_Weight: 0
  - m_Path: creature/jaina3/jaina3 1/creature/jaina3/jaina3_bone_0/creature/jaina3/jaina3_bone_1/creature/jaina3/jaina3_bone_3/creature/jaina3/jaina3_bone_8/creature/jaina3/jaina3_bone_14/creature/jaina3/jaina3_bone_161
    m_Weight: 0
  - m_Path: creature/jaina3/jaina3 1/creature/jaina3/jaina3_bone_0/creature/jaina3/jaina3_bone_1/creature/jaina3/jaina3_bone_3/creature/jaina3/jaina3_bone_8/creature/jaina3/jaina3_bone_14/creature/jaina3/jaina3_bone_162
    m_Weight: 0
  - m_Path: creature/jaina3/jaina3 1/creature/jaina3/jaina3_bone_0/creature/jaina3/jaina3_bone_1/creature/jaina3/jaina3_bone_3/creature/jaina3/jaina3_bone_8/creature/jaina3/jaina3_bone_14/creature/jaina3/jaina3_bone_163
    m_Weight: 0
  - m_Path: creature/jaina3/jaina3 1/creature/jaina3/jaina3_bone_0/creature/jaina3/jaina3_bone_1/creature/jaina3/jaina3_bone_3/creature/jaina3/jaina3_bone_8/creature/jaina3/jaina3_bone_14/creature/jaina3/jaina3_bone_164
    m_Weight: 0
  - m_Path: creature/jaina3/jaina3 1/creature/jaina3/jaina3_bone_0/creature/jaina3/jaina3_bone_1/creature/jaina3/jaina3_bone_3/creature/jaina3/jaina3_bone_8/creature/jaina3/jaina3_bone_14/creature/jaina3/jaina3_bone_165
    m_Weight: 0
  - m_Path: creature/jaina3/jaina3 1/creature/jaina3/jaina3_bone_0/creature/jaina3/jaina3_bone_1/creature/jaina3/jaina3_bone_3/creature/jaina3/jaina3_bone_8/creature/jaina3/jaina3_bone_153
    m_Weight: 0
  - m_Path: creature/jaina3/jaina3 1/creature/jaina3/jaina3_bone_0/creature/jaina3/jaina3_bone_1/creature/jaina3/jaina3_bone_3/creature/jaina3/jaina3_bone_138
    m_Weight: 0
  - m_Path: creature/jaina3/jaina3 1/creature/jaina3/jaina3_bone_0/creature/jaina3/jaina3_bone_1/creature/jaina3/jaina3_bone_3/creature/jaina3/jaina3_bone_139
    m_Weight: 0
  - m_Path: creature/jaina3/jaina3 1/creature/jaina3/jaina3_bone_0/creature/jaina3/jaina3_bone_1/creature/jaina3/jaina3_bone_3/creature/jaina3/jaina3_bone_140
    m_Weight: 0
  - m_Path: creature/jaina3/jaina3 1/creature/jaina3/jaina3_bone_0/creature/jaina3/jaina3_bone_1/creature/jaina3/jaina3_bone_3/creature/jaina3/jaina3_bone_141
    m_Weight: 0
  - m_Path: creature/jaina3/jaina3 1/creature/jaina3/jaina3_bone_0/creature/jaina3/jaina3_bone_1/creature/jaina3/jaina3_bone_3/creature/jaina3/jaina3_bone_142
    m_Weight: 0
  - m_Path: creature/jaina3/jaina3 1/creature/jaina3/jaina3_bone_0/creature/jaina3/jaina3_bone_1/creature/jaina3/jaina3_bone_3/creature/jaina3/jaina3_bone_143
    m_Weight: 0
  - m_Path: creature/jaina3/jaina3 1/creature/jaina3/jaina3_bone_0/creature/jaina3/jaina3_bone_1/creature/jaina3/jaina3_bone_3/creature/jaina3/jaina3_bone_144
    m_Weight: 0
  - m_Path: creature/jaina3/jaina3 1/creature/jaina3/jaina3_bone_0/creature/jaina3/jaina3_bone_1/creature/jaina3/jaina3_bone_3/creature/jaina3/jaina3_bone_145
    m_Weight: 0
  - m_Path: creature/jaina3/jaina3 1/creature/jaina3/jaina3_bone_0/creature/jaina3/jaina3_bone_1/creature/jaina3/jaina3_bone_3/creature/jaina3/jaina3_bone_146
    m_Weight: 0
  - m_Path: creature/jaina3/jaina3 1/creature/jaina3/jaina3_bone_0/creature/jaina3/jaina3_bone_1/creature/jaina3/jaina3_bone_3/creature/jaina3/jaina3_bone_147
    m_Weight: 0
  - m_Path: creature/jaina3/jaina3 1/creature/jaina3/jaina3_bone_0/creature/jaina3/jaina3_bone_1/creature/jaina3/jaina3_bone_3/creature/jaina3/jaina3_bone_148
    m_Weight: 0
  - m_Path: creature/jaina3/jaina3 1/creature/jaina3/jaina3_bone_0/creature/jaina3/jaina3_bone_1/creature/jaina3/jaina3_bone_3/creature/jaina3/jaina3_bone_149
    m_Weight: 0
  - m_Path: creature/jaina3/jaina3 1/creature/jaina3/jaina3_bone_114
    m_Weight: 0
  - m_Path: creature/jaina3/jaina3 1/creature/jaina3/jaina3_bone_115
    m_Weight: 0
  - m_Path: creature/jaina3/jaina3 1/creature/jaina3/jaina3_bone_116
    m_Weight: 0
  - m_Path: creature/jaina3/jaina3 1/creature/jaina3/jaina3_bone_117
    m_Weight: 0
  - m_Path: creature/jaina3/jaina3 1/creature/jaina3/jaina3_bone_118
    m_Weight: 0
  - m_Path: creature/jaina3/jaina3 1/creature/jaina3/jaina3_bone_119
    m_Weight: 0
  - m_Path: creature/jaina3/jaina3 1/creature/jaina3/jaina3_bone_120
    m_Weight: 0
  - m_Path: creature/jaina3/jaina3 1/creature/jaina3/jaina3_bone_121
    m_Weight: 0
  - m_Path: creature/jaina3/jaina3 1/creature/jaina3/jaina3_bone_122
    m_Weight: 0
  - m_Path: creature/jaina3/jaina3 1/creature/jaina3/jaina3_bone_123
    m_Weight: 0
  - m_Path: creature/jaina3/jaina3 1/creature/jaina3/jaina3_bone_124
    m_Weight: 0
  - m_Path: creature/jaina3/jaina3 1/creature/jaina3/jaina3_bone_125
    m_Weight: 0
  - m_Path: creature/jaina3/jaina3 1/creature/jaina3/jaina3_bone_126
    m_Weight: 0
  - m_Path: creature/jaina3/jaina3 1/creature/jaina3/jaina3_bone_127
    m_Weight: 0
  - m_Path: creature/jaina3/jaina3 1/creature/jaina3/jaina3_bone_128
    m_Weight: 0
  - m_Path: creature/jaina3/jaina3 1/creature/jaina3/jaina3_bone_129
    m_Weight: 0
  - m_Path: creature/jaina3/jaina3 1/creature/jaina3/jaina3_bone_130
    m_Weight: 0
  - m_Path: creature/jaina3/jaina3 1/creature/jaina3/jaina3_bone_131
    m_Weight: 0
  - m_Path: creature/jaina3/jaina3 1/creature/jaina3/jaina3_bone_132
    m_Weight: 0
  - m_Path: creature/jaina3/jaina3 1/creature/jaina3/jaina3_bone_133
    m_Weight: 0
  - m_Path: creature/jaina3/jaina3 1/creature/jaina3/jaina3_bone_134
    m_Weight: 0
  - m_Path: creature/jaina3/jaina3 1/creature/jaina3/jaina3_bone_135
    m_Weight: 0
