%YAML 1.1
%TAG !u! tag:unity3d.com,2011:
--- !u!21 &2100000
Material:
  serializedVersion: 6
  m_ObjectHideFlags: 0
  m_PrefabParentObject: {fileID: 0}
  m_PrefabInternal: {fileID: 0}
  m_Name: BloodHand
  m_Shader: {fileID: 4800000, guid: 18cc8fe7d50c89741b56c1ae6a5baa66, type: 3}
  m_ShaderKeywords: BlendMul Clip_OFF FrameBlend_OFF SoftParticles_OFF VertLight_OFF
    _BLENDMODE_MUL _FLIPBOOK_BLENDING
  m_LightmapFlags: 5
  m_EnableInstancingVariants: 1
  m_DoubleSidedGI: 0
  m_CustomRenderQueue: -1
  stringTagMap: {}
  disabledShaderPasses: []
  m_SavedProperties:
    serializedVersion: 3
    m_TexEnvs:
    - _BumpMap:
        m_Texture: {fileID: 0}
        m_Scale: {x: 1, y: 1}
        m_Offset: {x: 0, y: 0}
    - _CutoutTex:
        m_Texture: {fileID: 0}
        m_Scale: {x: 1, y: 1}
        m_Offset: {x: 0, y: 0}
    - _DetailAlbedoMap:
        m_Texture: {fileID: 0}
        m_Scale: {x: 1, y: 1}
        m_Offset: {x: 0, y: 0}
    - _DetailMask:
        m_Texture: {fileID: 0}
        m_Scale: {x: 1, y: 1}
        m_Offset: {x: 0, y: 0}
    - _DetailNormalMap:
        m_Texture: {fileID: 0}
        m_Scale: {x: 1, y: 1}
        m_Offset: {x: 0, y: 0}
    - _EmissionMap:
        m_Texture: {fileID: 0}
        m_Scale: {x: 1, y: 1}
        m_Offset: {x: 0, y: 0}
    - _MainTex:
        m_Texture: {fileID: 2800000, guid: 05839f1a8049db445b449455d3793590, type: 3}
        m_Scale: {x: 1, y: 1}
        m_Offset: {x: 0, y: 0}
    - _MetallicGlossMap:
        m_Texture: {fileID: 0}
        m_Scale: {x: 1, y: 1}
        m_Offset: {x: 0, y: 0}
    - _NoiseTex:
        m_Texture: {fileID: 0}
        m_Scale: {x: 1, y: 1}
        m_Offset: {x: 0, y: 0}
    - _OcclusionMap:
        m_Texture: {fileID: 0}
        m_Scale: {x: 1, y: 1}
        m_Offset: {x: 0, y: 0}
    - _ParallaxMap:
        m_Texture: {fileID: 0}
        m_Scale: {x: 1, y: 1}
        m_Offset: {x: 0, y: 0}
    m_Floats:
    - DstMode: 0
    - SrcMode: 2
    - _BlendMode: 2
    - _BumpScale: 1
    - _CullMode: 0
    - _Cutoff: 0.5
    - _Cutout: 0.1
    - _CutoutThreshold: 0.015
    - _DetailNormalMapScale: 1
    - _DstBlend: 10
    - _DstMode: 3
    - _FresnelFadeFactor: 3
    - _FresnelPow: 5
    - _FresnelR0: 0.04
    - _Glossiness: 0
    - _InvFade: 1
    - _Metallic: 0
    - _Mode: 2
    - _OcclusionStrength: 1
    - _Parallax: 0.02
    - _SoftInverted: 0
    - _SrcBlend: 5
    - _SrcMode: 0
    - _UVSec: 0
    - _UseCutout: 0
    - _UseCutoutTex: 0
    - _UseCutoutThreshold: 0
    - _UseFrameBlending: 1
    - _UseFresnel: 0
    - _UseFresnelFading: 0
    - _UseNoiseDistortion: 0
    - _UseParticlesAlphaCutout: 0
    - _UseSoft: 0
    - _UseSoftCutout: 0
    - _UseVertexStreamRandom: 0
    - _ZWrite: 0
    - _ZWriteMode: 0
    m_Colors:
    - _Color: {r: 1, g: 1, b: 1, a: 1}
    - _CutoutColor: {r: 1, g: 1, b: 1, a: 1}
    - _DistortionSpeedScale: {r: 1, g: -1, b: 0.15, a: 0.15}
    - _EmissionColor: {r: 0, g: 0, b: 0, a: 1}
    - _FogColorMultiplier: {r: 1, g: 1, b: 1, a: 1}
    - _FresnelColor: {r: 1, g: 1, b: 1, a: 1}
    - _Tiling: {r: 1000, g: 1000, b: 10, a: 10}
    - _TintColor: {r: 1.5, g: 1.1626458, b: 0.7389706, a: 0.5}
