%YAML 1.1
%TAG !u! tag:unity3d.com,2011:
--- !u!221 &22100000
AnimatorOverrideController:
  m_ObjectHideFlags: 0
  m_PrefabParentObject: {fileID: 0}
  m_PrefabInternal: {fileID: 0}
  m_Name: Chest_03Controller
  m_Controller: {fileID: 9100000, guid: e409557b24daceb4e9b19fd784aa876b, type: 2}
  m_Clips:
  - m_OriginalClip: {fileID: 7400000, guid: 7e0f606059999a445958959724338956, type: 3}
    m_OverrideClip: {fileID: 7400000, guid: fdb21274e1566ba47abe1daeeed8730e, type: 3}
