%YAML 1.1
%TAG !u! tag:unity3d.com,2011:
--- !u!114 &11400000
MonoBehaviour:
  m_ObjectHideFlags: 0
  m_PrefabParentObject: {fileID: 0}
  m_PrefabInternal: {fileID: 0}
  m_GameObject: {fileID: 0}
  m_Enabled: 1
  m_EditorHideFlags: 0
  m_Script: {fileID: 11500000, guid: 5070334bbcc7b82458c9c8d497490737, type: 3}
  m_Name: EarthquakeShock
  m_EditorClassIdentifier: 
  objectName: "\u5730\u88C2\u64CA"
  description: This is a UseableObject
  icon: {fileID: 21300000, guid: 857b3fe50e587b746af84bcc5f72185e, type: 3}
  objectID: 103
  coolDownTime: 10
  castTime: 0
  castRange: 4
  effectRange: 10
  costMana: 200
  damageRatio: 6
  levelNeeded: 10
  targetNeeded: 0
  type: 4
