%YAML 1.1
%TAG !u! tag:unity3d.com,2011:
--- !u!114 &11400000
MonoBehaviour:
  m_ObjectHideFlags: 0
  m_PrefabParentObject: {fileID: 0}
  m_PrefabInternal: {fileID: 0}
  m_GameObject: {fileID: 0}
  m_Enabled: 1
  m_EditorHideFlags: 0
  m_Script: {fileID: 11500000, guid: 5070334bbcc7b82458c9c8d497490737, type: 3}
  m_Name: FireBall
  m_EditorClassIdentifier: 
  objectName: "\u706B\u7403\u8853"
  description: "\u53EC\u559A\u706B\u7403\u653B\u64CA\u6575\u4EBA"
  icon: {fileID: 21300000, guid: 306155ccc7c40ac4e8200dcab0de3c90, type: 3}
  objectID: 101
  coolDownTime: 2
  castTime: 1
  castRange: 25
  effectRange: 0
  costMana: 20
  damageRatio: 4
  levelNeeded: 0
  targetNeeded: 1
  type: 2
