%YAML 1.1
%TAG !u! tag:unity3d.com,2011:
--- !u!114 &11400000
MonoBehaviour:
  m_ObjectHideFlags: 0
  m_PrefabParentObject: {fileID: 0}
  m_PrefabInternal: {fileID: 0}
  m_GameObject: {fileID: 0}
  m_Enabled: 1
  m_EditorHideFlags: 0
  m_Script: {fileID: 11500000, guid: 5070334bbcc7b82458c9c8d497490737, type: 3}
  m_Name: FireDragon
  m_EditorClassIdentifier: 
  objectName: "\u706B\u9F8D\u8853"
  description: "\u53EC\u559A\u706B\u9F8D\u653B\u64CA\u6575\u4EBA"
  icon: {fileID: 21300000, guid: 8e56cb1cfd9c8e7408e483106dcd90d0, type: 3}
  objectID: 102
  coolDownTime: 10
  castTime: 0
  castRange: 5
  effectRange: 10
  costMana: 0
  damageRatio: 3
  levelNeeded: 10
  targetNeeded: 0
  type: 3
