%YAML 1.1
%TAG !u! tag:unity3d.com,2011:
--- !u!114 &11400000
MonoBehaviour:
  m_ObjectHideFlags: 0
  m_PrefabParentObject: {fileID: 0}
  m_PrefabInternal: {fileID: 0}
  m_GameObject: {fileID: 0}
  m_Enabled: 1
  m_EditorHideFlags: 0
  m_Script: {fileID: 11500000, guid: 5070334bbcc7b82458c9c8d497490737, type: 3}
  m_Name: StoneMonster
  m_EditorClassIdentifier: 
  objectName: "\u60E1\u9B54\u5FA9\u7526"
  description: This is a UseableObject
  icon: {fileID: 21300000, guid: 6509dc3e98d46a34c9b5ade54c97c9bd, type: 3}
  objectID: 106
  coolDownTime: 5
  castTime: 0
  castRange: -3
  effectRange: 8
  costMana: 30
  damageRatio: 3
  levelNeeded: 0
  targetNeeded: 0
  type: 4
