%YAML 1.1
%TAG !u! tag:unity3d.com,2011:
--- !u!114 &11400000
MonoBehaviour:
  m_ObjectHideFlags: 0
  m_PrefabParentObject: {fileID: 0}
  m_PrefabInternal: {fileID: 0}
  m_GameObject: {fileID: 0}
  m_Enabled: 1
  m_EditorHideFlags: 0
  m_Script: {fileID: 11500000, guid: e8aa139417aff044db6068a967412631, type: 3}
  m_Name: ReMission
  m_EditorClassIdentifier: 
  objectName: New Object
  description: This is a UseableObject
  icon: {fileID: 0}
  objectID: 0
  coolDownTime: 0
  MissionDescription: 
  target: []
  Amount: 0
