%YAML 1.1
%TAG !u! tag:unity3d.com,2011:
--- !u!21 &2100000
Material:
  serializedVersion: 6
  m_ObjectHideFlags: 0
  m_PrefabParentObject: {fileID: 0}
  m_PrefabInternal: {fileID: 0}
  m_Name: Dragon
  m_Shader: {fileID: 4800000, guid: 3b5eaa5a09e6b204085004ea02b03e38, type: 3}
  m_ShaderKeywords: USE_FRESNEL USE_HEIGHT _ZWRITEMODE_ON
  m_LightmapFlags: 5
  m_EnableInstancingVariants: 1
  m_DoubleSidedGI: 0
  m_CustomRenderQueue: -1
  stringTagMap: {}
  disabledShaderPasses: []
  m_SavedProperties:
    serializedVersion: 3
    m_TexEnvs:
    - _BumpMap:
        m_Texture: {fileID: 2800000, guid: d6392ea2ae1a5154b818dda7eeb3c138, type: 3}
        m_Scale: {x: 1, y: 2}
        m_Offset: {x: 0, y: 0}
    - _CutoutTex:
        m_Texture: {fileID: 0}
        m_Scale: {x: 1, y: 1}
        m_Offset: {x: 0, y: 0}
    - _DetailAlbedoMap:
        m_Texture: {fileID: 0}
        m_Scale: {x: 1, y: 1}
        m_Offset: {x: 0, y: 0}
    - _DetailMask:
        m_Texture: {fileID: 0}
        m_Scale: {x: 1, y: 1}
        m_Offset: {x: 0, y: 0}
    - _DetailNormalMap:
        m_Texture: {fileID: 0}
        m_Scale: {x: 1, y: 1}
        m_Offset: {x: 0, y: 0}
    - _EmissionMap:
        m_Texture: {fileID: 0}
        m_Scale: {x: 1, y: 1}
        m_Offset: {x: 0, y: 0}
    - _HeightTex:
        m_Texture: {fileID: 2800000, guid: 959861c33862ded44aca231d85a12ccc, type: 3}
        m_Scale: {x: 1, y: 1}
        m_Offset: {x: 0, y: 0}
    - _MainTex:
        m_Texture: {fileID: 0}
        m_Scale: {x: 1, y: 1}
        m_Offset: {x: 0, y: 0}
    - _MetallicGlossMap:
        m_Texture: {fileID: 0}
        m_Scale: {x: 1, y: 1}
        m_Offset: {x: 0, y: 0}
    - _NormalTex:
        m_Texture: {fileID: 2800000, guid: d6392ea2ae1a5154b818dda7eeb3c138, type: 3}
        m_Scale: {x: 1, y: 2}
        m_Offset: {x: 0, y: 0}
    - _OcclusionMap:
        m_Texture: {fileID: 0}
        m_Scale: {x: 1, y: 1}
        m_Offset: {x: 0, y: 0}
    - _ParallaxMap:
        m_Texture: {fileID: 0}
        m_Scale: {x: 1, y: 1}
        m_Offset: {x: 0, y: 0}
    - _PerlinNoise:
        m_Texture: {fileID: 2800000, guid: 959861c33862ded44aca231d85a12ccc, type: 3}
        m_Scale: {x: 1, y: 1}
        m_Offset: {x: 0, y: 0}
    m_Floats:
    - _AlphaClip: 10
    - _BumpAmt: 500
    - _BumpScale: 1
    - _CullMode: 2
    - _Cutoff: 0.5
    - _Cutout: 1
    - _CutoutThreshold: 0.015
    - _DetailNormalMapScale: 1
    - _Distortion: 500
    - _DstBlend: 0
    - _FPOW: 3
    - _FresnelDistort: 1500
    - _FresnelInvert: 1
    - _FresnelPow: 3
    - _FresnelR0: 0.05
    - _Glossiness: 0.5
    - _Height: 0.1
    - _InvFade: 3
    - _IsDecal: 0
    - _Metallic: 1
    - _Mode: 0
    - _OcclusionStrength: 1
    - _Parallax: 0.02
    - _R0: 0.1
    - _RefractiveStrength: -1
    - _SrcBlend: 1
    - _TintDistortion: 1
    - _UVSec: 0
    - _UseAlphaCliping: 0
    - _UseBlending: 0
    - _UseCutout: 0
    - _UseFresnel: 1
    - _UseHeight: 1
    - _UseMainTex: 0
    - _UseRefractive: 0
    - _UseSoft: 0
    - _ZWrite: 1
    - _ZWriteMode: 1
    m_Colors:
    - _Color: {r: 1, g: 1, b: 1, a: 1}
    - _CutoutColor: {r: 1, g: 1, b: 1, a: 1}
    - _DropWavesScale: {r: 1, g: 0, b: 0, a: 0}
    - _EmissionColor: {r: 0, g: 0, b: 0, a: 1}
    - _FresnelColor: {r: 0.45588237, g: 0.75233257, b: 1, a: 1}
    - _HeightUVScrollDistort: {r: 5, g: 1, b: 0, a: 0}
    - _MainColor: {r: 1, g: 1, b: 1, a: 1}
    - _NoiseScale: {r: 0.5, g: 0.5, b: 0.1, a: 0.25}
    - _RimColor: {r: 0.13283955, g: 0.15775639, b: 0.19852942, a: 0.678}
    - _Speed: {r: 5, g: 1, b: 0, a: 0}
    - _TintColor: {r: 0.9264706, g: 0.96653146, b: 1, a: 1}
